Beginning Data Cleaning with dplyr and piping – Data Analytics and Statistics
…
Problem 11: Grouping and Creating New Columns

Use the airquality dataset to group the data by Month and create a new column mean_temp which is the mean Temp (temperature) for each month. Save the result to grouped_mutated_airquality.

Code

# Solution

grouped_mutated_airquality <- airquality %>%
  group_by(Month) %>%
  mutate(mean_temp = mean(Temp, na.rm = TRUE))

grouped_mutated_airquality

# A tibble: 153 × 7
# Groups:   Month [5]
   Ozone Solar.R  Wind  Temp Month   Day mean_temp
   <int>   <int> <dbl> <int> <int> <int>     <dbl>
 1    41     190   7.4    67     5     1      65.5
 2    36     118   8      72     5     2      65.5
 3    12     149  12.6    74     5     3      65.5
 4    18     313  11.5    62     5     4      65.5
 5    NA      NA  14.3    56     5     5      65.5
 6    28      NA  14.9    66     5     6      65.5
 7    23     299   8.6    65     5     7      65.5
 8    19      99  13.8    59     5     8      65.5
 9     8      19  20.1    61     5     9      65.5
10    NA     194   8.6    69     5    10      65.5
# ℹ 143 more rows
…
