Barplots and Histograms – Data Analytics and Statistics
…
https://www.kaggle.com/datasets/thedevastator/us-christmas-tree-sales-data/data 

Create a bar chart that shows the number of trees sold (per million) for each year from 2010-2016.

tree_data <- read_csv("./US_Christmas_Tree_Sales_2010_to_2016.csv")

Histogram Dataset 1

The following is a dataset (Ages.csv) that contains information about the ages of participants at a local community center. Copy the dataset into a CSV file named ages_data.csv and upload it to your working directory. Create a histogram with 7 bins depicting the data.

ages_data <- read_csv("./Ages.csv")

ages_data

# A tibble: 50 × 1
     Age
   <dbl>
 1    23
 2    27
 3    31
 4    35
 5    29
 6    42
 7    38
 8    45
 9    52
10    36
# ℹ 40 more rows

Histogram Dataset 2

The following (Lexington_Temperature_Data.csv) is a dataset that contains information about the daily temperature in Celsius for Lexington the first 50 days of spring. Copy the dataset into a CSV file named Lex_temps.csv and upload it to your working directory. Create a histogram with 4 bins depicting the data.

Lex_temps <- read_csv("./Lexington_Temperature_Data.csv")

Lex_temps

# A tibble: 50 × 2
     Day Temperature
   <dbl>       <dbl>
 1     1        15.2
 2     2        16.5
 3     3        14.8
 4     4        17.1
 5     5        15.9
 6     6        16.2
 7     7        15  
 8     8        14.7
 9     9        16.8
10    10        15.4
# ℹ 40 more rows

Histogram Dataset 3

The following is a data set (kentucky_mens_basketball_wins.csv) that contains information about the number of wins for the University of Kentucky’s men’s basketball team from 1980 - 2024. Copy the dataset into a CSV file named UK_wins and upload it to your working directory. Create a histogram with 10 bins depicting the data on the amount of wins per year.

UK_wins <- read_csv("./kentucky_mens_basketball_wins.csv")

UK_wins

# A tibble: 45 × 2
    Year Games_Won
   <dbl>     <dbl>
 1  1980        29
 2  1981        22
 3  1982        22
 4  1983        13
 5  1984        29
 6  1985        18
 7  1986        32
 8  1987        18
 9  1988        27
10  1989        13
# ℹ 35 more rows

Histogram Dataset 4

The following is a data set (Fire_Arm_Deaths_1990_to_2022.xlsx) that contains information about the number of firearm deaths in the US from 1990 - 2024. Copy the dataset into a CSV file named Fire_Arm_Deaths and upload it to your working directory. Create a histogram with 10 bins depicting the data on the amount of deaths per year.

library(readxl)

Fire_Arm_Deaths <- read_csv("./Fire_Arm_Deaths_1990_to_2022.csv")

Fire_Arm_Deaths

# A tibble: 33 × 2
    Year Deaths
   <dbl>  <dbl>
 1  2022  48204
 2  2021  48830
 3  2020  45222
 4  2019  39707
 5  2018  39740
 6  2017  39773
 7  2016  38658
 8  2015  36252
 9  2014  33594
10  2013  33636
# ℹ 23 more rows
…
